<?xml version="1.0" encoding="UTF-8" standalone="no"?>
<svg
   xmlns:dc="http://purl.org/dc/elements/1.1/"
   xmlns:cc="http://creativecommons.org/ns#"
   xmlns:rdf="http://www.w3.org/1999/02/22-rdf-syntax-ns#"
   xmlns:svg="http://www.w3.org/2000/svg"
   xmlns="http://www.w3.org/2000/svg"
   version="1.1"
   x="0px"
   y="0px"
   viewBox="0 0 200 200"
   style="enable-background:new 0 0 200 200;"
   xml:space="preserve"
   id="svg3493"><metadata
   id="metadata3499"><rdf:RDF><cc:Work
       rdf:about=""><dc:format>image/svg+xml</dc:format><dc:type
         rdf:resource="http://purl.org/dc/dcmitype/StillImage" /><dc:title></dc:title></cc:Work></rdf:RDF></metadata><defs
   id="defs3497" />
            
        <g
   id="g1019-8-6-1-5-7"
   transform="matrix(1.9106922,3.3094159,3.3094159,-1.9106922,125.64426,-81.741624)"
   style="fill:#ffffff" /><path
   id="path1023-0-92-1"
   style="fill:#ffffff;fill-opacity:1;fill-rule:nonzero;stroke:none;stroke-width:4.70556;stroke-miterlimit:4;stroke-dasharray:none"
   d="M 64.257666,84.210568 V 192.3771 h 5.840896 V 91.156911 h 58.440398 l 0.14301,20.326289 h 5.84436 l -0.14301,-27.272632 z" /><circle
   style="fill:#ffffff;stroke:none;stroke-width:3.82075;stroke-miterlimit:4;stroke-dasharray:none"
   id="path2435-4-2"
   cy="133.28511"
   cx="99.31971"
   r="4.4634967" /><g
   id="g1019-8-6-1-5-7-1"
   transform="matrix(-1.9106922,3.3094159,-3.3094159,-1.9106922,72.995192,-81.741624)"
   style="fill:#ffffff"><g
     id="g4106"><path
       d="m 16.622962,-17.551706 v -28.253481 l 1.52929,2.648764 -0.04184,24.745938 z"
       style="enable-background:new 0 0 200 200;fill:#ffffff;fill-opacity:1;fill-rule:nonzero;stroke:none"
       id="path1021-3-2-3-3-9"
       transform="matrix(0.49999998,-0.86602541,-0.86602541,-0.49999998,-6.8887429,-11.931653)" /><path
       id="path1021-3-2-3-3-9-4"
       style="fill:#ffffff;fill-opacity:1;fill-rule:nonzero;stroke:none;stroke-width:3.82138"
       d="M 99.320312 6.8066406 L 99.320312 13.369141 L 181.13477 60.791016 L 192.82227 60.791016 L 99.320312 6.8066406 z "
       transform="matrix(-0.13084264,-0.22662609,0.22662609,-0.13084264,28.075668,5.8473254)" /></g></g></svg>
